{
  "minecraft:recipes/misc/book": {
    "criteria": {
      "has_paper": "2020-08-08 15:38:20 -0400"
    },
    "done": true
  },
  "minecraft:recipes/transportation/rail": {
    "criteria": {
      "has_minecart": "2020-08-10 01:51:43 -0400"
    },
    "done": true
  },
  "minecraft:recipes/transportation/dark_oak_boat": {
    "criteria": {
      "entered_water": "2020-08-10 01:46:43 -0400"
    },
    "done": true
  },
  "minecraft:recipes/transportation/hopper_minecart": {
    "criteria": {
      "has_minecart": "2020-08-10 01:51:42 -0400"
    },
    "done": true
  },
  "minecraft:recipes/transportation/birch_boat": {
    "criteria": {
      "entered_water": "2020-08-10 01:46:43 -0400"
    },
    "done": true
  },
  "minecraft:recipes/transportation/acacia_boat": {
    "criteria": {
      "entered_water": "2020-08-10 01:46:43 -0400"
    },
    "done": true
  },
  "minecraft:recipes/transportation/tnt_minecart": {
    "criteria": {
      "has_minecart": "2020-08-10 01:51:42 -0400"
    },
    "done": true
  },
  "minecraft:recipes/transportation/furnace_minecart": {
    "criteria": {
      "has_minecart": "2020-08-10 01:51:42 -0400"
    },
    "done": true
  },
  "minecraft:recipes/transportation/boat": {
    "criteria": {
      "entered_water": "2020-08-10 01:46:43 -0400"
    },
    "done": true
  },
  "minecraft:recipes/transportation/jungle_boat": {
    "criteria": {
      "entered_water": "2020-08-10 01:46:43 -0400"
    },
    "done": true
  },
  "minecraft:recipes/transportation/spruce_boat": {
    "criteria": {
      "entered_water": "2020-08-10 01:46:43 -0400"
    },
    "done": true
  },
  "minecraft:adventure/adventuring_time": {
    "criteria": {
      "ice_flats": "2020-08-09 22:01:02 -0400",
      "frozen_river": "2020-08-09 22:01:18 -0400",
      "taiga_cold_hills": "2020-08-09 22:28:55 -0400",
      "forest": "2020-08-08 16:06:50 -0400",
      "mesa_rock": "2020-08-09 21:52:54 -0400",
      "swampland": "2020-08-08 16:09:27 -0400",
      "birch_forest": "2020-08-09 21:46:04 -0400",
      "deep_ocean": "2020-08-08 16:00:51 -0400",
      "beaches": "2020-08-08 16:04:11 -0400",
      "extreme_hills_with_trees": "2020-08-08 16:10:27 -0400",
      "desert_hills": "2020-08-08 16:05:21 -0400",
      "mesa": "2020-08-09 21:52:49 -0400",
      "forest_hills": "2020-08-08 16:06:59 -0400",
      "savanna": "2020-08-08 16:04:12 -0400",
      "plains": "2020-08-08 16:06:42 -0400",
      "savanna_rock": "2020-08-08 16:07:35 -0400",
      "ice_mountains": "2020-08-09 22:01:05 -0400",
      "taiga": "2020-08-09 21:57:20 -0400",
      "taiga_hills": "2020-08-09 21:58:35 -0400",
      "birch_forest_hills": "2020-08-09 22:11:52 -0400",
      "taiga_cold": "2020-08-09 22:00:48 -0400",
      "ocean": "2020-08-08 15:30:43 -0400",
      "extreme_hills": "2020-08-08 16:08:26 -0400",
      "roofed_forest": "2020-08-09 21:44:46 -0400",
      "cold_beach": "2020-08-09 22:00:45 -0400",
      "river": "2020-08-08 16:04:10 -0400",
      "desert": "2020-08-08 16:05:10 -0400",
      "stone_beach": "2020-08-08 16:08:27 -0400"
    },
    "done": false
  },
  "minecraft:recipes/transportation/chest_minecart": {
    "criteria": {
      "has_minecart": "2020-08-10 01:51:42 -0400"
    },
    "done": true
  }
}