{
  "minecraft:recipes/misc/book": {
    "criteria": {
      "has_paper": "2020-03-30 22:31:06 -0400"
    },
    "done": true
  },
  "minecraft:recipes/decorations/chest": {
    "criteria": {
      "has_lots_of_items": "2020-03-30 22:33:03 -0400"
    },
    "done": true
  },
  "minecraft:adventure/adventuring_time": {
    "criteria": {
      "forest": "2020-03-30 22:35:42 -0400",
      "deep_ocean": "2020-03-30 22:31:22 -0400",
      "beaches": "2020-03-30 22:34:03 -0400",
      "forest_hills": "2020-03-30 22:35:49 -0400",
      "taiga": "2020-03-30 22:39:30 -0400",
      "ocean": "2020-03-30 22:36:26 -0400",
      "river": "2020-03-30 22:33:48 -0400"
    },
    "done": false
  },
  "minecraft:recipes/decorations/armor_stand": {
    "criteria": {
      "has_stone_slab": "2020-03-30 22:32:04 -0400"
    },
    "done": true
  }
}